<svg width="1440" height="111" viewBox="0 0 1440 111" fill="none" xmlns="http://www.w3.org/2000/svg">
<path d="M1065.63 26.1316C1239.57 17.3487 1375.69 61.5629 1440 94V111H0V26.1317C193.433 44.5959 197.431 79.5281 443.346 79.5281C658.98 79.5281 848.205 37.1103 1065.63 26.1316Z" fill="#F0F9FE"/>
<path d="M73 9.46271C119.667 37.796 235.6 72.6627 362 77.4627C624.5 87.4311 725.5 19.4627 927 16.9627C1128.5 14.4627 1306 61.4627 1354 86.4627" stroke="#76C4FF" stroke-linecap="round" stroke-linejoin="round"/>
<path d="M95.5 83.4627C232 73.4627 224.509 47.5 351 47.5C491.5 47.5 510.758 94.688 710 64.4999C858.5 42 843 0.499939 1008.5 0.5C1174 0.500061 1287.5 91.9627 1367.5 109.463" stroke="#76C4FF" stroke-linecap="round" stroke-linejoin="round"/>
</svg>
