<svg width="19" height="28" viewBox="0 0 19 28" fill="none" xmlns="http://www.w3.org/2000/svg">
<path d="M2.78616 27.6449V12.5885H0V8.43373H2.78616V7.79455C2.82165 5.23779 3.66164 3.2788 5.30612 1.91756C6.86779 0.639188 9.05058 0 11.8545 0C13.6173 0 15.6995 0.343268 18.1012 1.0298L17.2848 5.7527L16.291 5.48637C15.0015 5.1431 13.6409 4.97147 12.2094 4.97147C9.92606 4.97147 8.78438 6.01311 8.78438 8.09639V8.43373H12.5466V12.5885H8.78438V27.6449H2.78616Z" fill="#0092FF"/>
</svg>
